*** Life<FredkinCell> 5x15 ***

Generation = 0, Population = 16.
--------0-0--0-
0-----0--0-----
--0------0-----
0---0------00-0
--0------00----

*** Life<FredkinCell> 15x9 ***

Generation = 0, Population = 28.
0------0-
0---00---
------0--
--0---00-
0-0------
00-------
0----0--0
--0-0----
-0-00----
0--0000--
---------
---------
------0--
------0--
---------

Generation = 11, Population = 69.
4-333-3--
4----531-
-48-55--0
33----11-
--73---2-
-40----15
--4-5--4-
1-44--1-3
1-4-13-12
-3-3-15-4
2---3--02
0-612-2--
--542--04
2-0644-27
1-32-0---

Generation = 22, Population = 75.
9---65-5-
+-+-8-6--
2--5-63--
--6-3-828
-495--7--
5--3997-7
586---8-4
-2-7-1---
548455-65
3564--785
-62-----3
51-28-4-3
-57--331-
8--875---
327--1218

*** Life<FredkinCell> 20x6 ***

Generation = 0, Population = 21.
------
------
---0--
------
0-----
--0---
------
------
------
0----0
--0-0-
---0--
------
0---00
---00-
0-----
00-0--
--0---
0---0-
-----0

Generation = 4, Population = 42.
0--0--
--0---
-----0
------
--1-0-
-----1
--101-
---1--
0-----
20-1-0
---0--
0----2
00-3--
-0-0-4
--3-10
--0032
-43-1-
----3-
--13--
0020--

Generation = 8, Population = 53.
------
3-0--0
31301-
---0--
---10-
2-0--1
---23-
4-----
40-1--
-41-1-
---2--
-0-0-4
0-----
04--15
-1441-
--4-4-
1--110
--2-73
1--40-
41-012

Generation = 12, Population = 63.
323---
51411-
-3412-
0----1
-0-110
--20-3
-22--2
-03-33
6011--
--3--4
-02--1
1-310-
-32--0
2432--
01----
2-----
-665-0
-4--+-
-3---1
4-50-3

Generation = 16, Population = 49.
54--1-
5-5-31
33--20
---2-2
4---3-
----1-
2---7-
--7---
72-5--
---4-5
--44--
12--4-
---5--
2----7
-2--34
--5--2
2676-0
1---+-
2--7--
--72-5

Generation = 20, Population = 65.
5-4---
52-4-2
3553-4
-564-4
4-215-
--43--
-5-6+3
-2-765
9427--
37-44-
-1----
235---
--7---
265--9
--7455
--6-53
2-+-2-
---1--
472+--
-5+23-

Generation = 24, Population = 62.
684--1
73-666
-7---4
26--46
-462-3
3---1-
--7-+3
----+6
-429--
--54-6
--5--5
3--257
36-95-
-695-+
24+-66
42----
------
2--5+-
--3--4
-5+6-8

Generation = 28, Population = 57.
6---23
745--+
67-836
6-776-
-----4
-1--3-
--97+-
6---+-
-63-12
--6-6-
---5--
--526-
3--+--
--+52+
--+6-6
5----4
59-+6-
3-2--6
---+2-
67--4-

Generation = 32, Population = 45.
--6-4-
---7--
-----6
8-9-77
7-96--
------
76----
--9---
+---2-
-+7587
----5-
------
3--+6-
7+-6--
34-676
6---9-
-+++--
----+7
9-6---
89---+

*** Life<FredkinCell> 12x16 ***

Generation = 0, Population = 20.
0---------------
0---------------
---0--------0-0-
-------------0--
--------------0-
-----------0----
-----0----------
--0-------------
----0----0---0--
-----0-------0--
-------------0--
-------0--0-00--

Generation = 19, Population = 92.
23------4526-3--
-3--8--1--1--84-
44-3-3637004-5--
-121-3--614-2---
4227--1-1---2---
5--84-051-55-4-1
17155----3-4-68-
66--8-43-2---63-
------324-5---62
---1--1--5---+-1
1---25---4--1-31
666-1--453--1---

*** Life<FredkinCell> 9x20 ***

Generation = 0, Population = 22.
-0--0-0-0------0----
----0----------0----
-------0------------
---------0----------
----0---------------
------000-0----0----
----0-------------0-
------------0---0---
----0------------00-

*** Life<FredkinCell> 16x19 ***

Generation = 0, Population = 27.
------0------------
-------------------
------------0------
-------------------
----0--0-----------
------0------------
-------------------
------------0-----0
---0--------0---0--
----0------0-----0-
-----0-------------
0-----0------------
-0-0---00---------0
-0-----------------
------0---------0--
----0-0--0---------

Generation = 19, Population = 132.
--56--42-1-1---1---
-542------0---03--1
53--1-24-411--3----
-52-4---23---02----
-52---1-5----2-1-42
--2---31-42-12--175
4-3-3-----54-1337-5
---433----55------9
-4-465-4-3--6---5-7
-456-85----6----35-
--2--53----3-33--1-
--1-4--1--7--430--3
-8--62---7-42757-12
1----43--5-54-20-16
-3-2---4---522--5-5
3-9--2-35-4--5-----

Generation = 38, Population = 143.
--8--9---5-6-339662
9-----6---63--8--7-
--43---+-----1-3+-6
4--2+-+-----8-505--
-6--6+-8+-+--43-4--
-----3------966-5+9
9---+8--+-+-+++---7
----98944--98-73--+
4-+7-+684-7--5--6-+
--+-9-+93-9-----++-
5--4967+787-+-947-8
+6-395+5--+------8-
--7+---+-+-+9-++---
-8-97-8--+4--65165-
----++++--78+-5---9
8---9-----95--8-64-

*** Life<FredkinCell> 9x12 ***

Generation = 0, Population = 16.
---0------0-
-0----------
0-0---000-0-
------------
----0----00-
0----------0
-----0-0----
------------
------------

*** Life<FredkinCell> 5x20 ***

Generation = 0, Population = 30.
00-0-------------00-
--00-0-0-0--0---0-0-
00--00-------------0
0---00----0---0-----
--00----0-0-00---0--

Generation = 15, Population = 56.
7-5--204-2-23--5-831
1-----0-5-5--0--32-0
-3-2---245-16-63-418
665045-0--30-5-0-162
24-5---8-2--5--12-41

*** Life<FredkinCell> 14x9 ***

Generation = 0, Population = 12.
---------
---------
00--0--0-
---------
---------
---------
---------
---------
--------0
----000--
---------
---------
-0-----0-
----0-0--

Generation = 15, Population = 68.
--11-330-
--20-2--0
-4--474--
--00--20-
--0222502
-0-3--21-
2-31702--
-322----1
-93--345-
7----475-
34--2-3-7
0-22265--
612-5--24
3----4-25

Generation = 30, Population = 52.
--5-2----
-3-15646-
-5--8-47-
-54-3-711
--2---5--
040-5-75-
------6-9
-76555-2-
--+-4---8
----++7--
----8-3--
6-4-5---3
-4----+57
------9-6

*** Life<FredkinCell> 12x6 ***

Generation = 0, Population = 10.
-0--0-
0-----
-0----
------
0-----
------
-0----
------
------
-0----
00-0--
------

Generation = 16, Population = 22.
565---
2-2---
-8-3--
------
2362--
-3----
-1-2--
2-----
----3-
---4--
--4184
2-----

*** Life<FredkinCell> 17x12 ***

Generation = 0, Population = 2.
------------
------------
------------
-----0------
------------
------------
-----0------
------------
------------
------------
------------
------------
------------
------------
------------
------------
------------

Generation = 4, Population = 7.
------------
------------
-----1------
-0-------0--
------------
------------
-0-------0--
-----1------
------------
------------
-----0------
------------
------------
------------
------------
------------
------------

Generation = 8, Population = 8.
-----0------
------------
------------
-1---1-----0
------------
------------
-1---------0
------------
------------
------------
------------
-----1------
------------
------------
-----0------
------------
------------

Generation = 12, Population = 23.
-1-------0--
------------
-1---4-----0
-----2-1----
-----4------
------------
-2---1-1-0--
-1---------0
------------
------------
-0---1-----0
-0-------0--
------------
------------
-0-------0--
-----1------
-----0------

Generation = 16, Population = 8.
------------
------------
------------
---3-----2--
------------
------------
---2-----2--
------------
-----2------
------------
------------
-----2------
-----4------
------------
------------
-----2------
------------

Generation = 20, Population = 26.
------------
------------
---2-----1--
-----3-2---1
-----6------
------------
-----1-1---2
---1-1---2--
-0---3---0--
------------
---1-----2--
-1---3---0--
-0---5---2--
------------
------------
-0-------0--
-----2------

Generation = 24, Population = 30.
---0-3---0--
------------
------------
-2---7-4-3-1
-----+------
------------
-5-3---3---2
-----1------
-0---------2
------------
------------
-3-2-5---1-1
-1---------3
------------
---2-4---1--
-1---3-----0
-----2------

Generation = 28, Population = 47.
-3-----2-2-2
------------
-2---6-4-4-2
---5-9-4----
---3-+-----6
------------
-6-5-5---5-3
-5-4---4-4--
-------2-4-3
------------
-3---3-1-3-2
-5----------
-------1-4-5
------------
-1-----2-1-1
---2-3-3-3--
---2-3-----1

Generation = 32, Population = 5.
------------
------------
-----8------
-----------2
------------
------------
-----------4
-----2------
------------
------------
-----3------
------------
------------
------------
------------
------------
------------

Generation = 36, Population = 17.
-----3------
------------
-3-------6-2
-----+-8-4--
------------
------------
-------6-6--
-8-------5-2
------------
------------
-4-------3-2
-----7------
------------
------------
-----5------
------------
------------

Generation = 40, Population = 19.
-----------2
------------
-3---9-----3
---+-+-----6
-----+------
------------
---9-7------
-9---------2
------------
------------
-5---4-----3
-----------3
------------
------------
-----------1
-----5------
-----4------

Generation = 44, Population = 39.
-3-----4-3-4
------------
---4---+---4
-----------+
-7-------7-+
------------
-+-----6-+--
-9-7---9-8--
-----8------
------------
---2---2---7
-7---8-4-3-7
-----+------
------------
-1-----4-3-3
-2---6---7-1
-0-------1-2

*** Life<FredkinCell> 19x15 ***

Generation = 0, Population = 13.
------------0--
---------------
---------0-----
---------0-----
----0----------
---------------
---------------
---0-----------
------------0--
-----------0--0
---------------
-------------0-
---------------
0-------0--0---
---------------
---------------
---------------
---------------
--0------------

Generation = 2, Population = 45.
---------00-0-0
---------1-----
----0--0---00--
-------0---0---
--0---0--1-----
---0-----0-----
----0-------0--
-0---0-----0--0
----------0---1
---0-----0--0-0
------------0--
0-------0--0--1
---------------
0-0---0--11----
---------------
0-------0--0---
--0------------
---------------
0-0-0----------

Generation = 4, Population = 44.
----0---10----0
---------------
-----1------21-
---0-0-------0-
0-------1------
-----------0--0
---------1-----
-------0-0---1-
----0---0-----1
0------01-012--
---------------
---0-----1---1-
------------0--
--0----1---10-0
--1------------
-------------0-
--0------------
1-------0--0---
0-----0--------

Generation = 6, Population = 110.
--0-01-13220-1-
---0-1-------1-
0--11--1-101---
-0-0-2-1------1
0-0--10--30-01-
---0-0-0----110
0---0--1---1--1
0----0--121-1-1
--0------01-1-1
0-00-0121---412
----0---1---2-0
001--0-01-1---2
--1-------0---1
0--100---23-00-
0-3-0-------1--
0-0----00--01-1
--0-0-0--------
3-1---1--11----
----0-0-1------

Generation = 8, Population = 44.
----2-----2-0--
-----------0--1
-0--3--------2-
-0-------1-----
--0------5--0--
0-------1--0---
------------1--
---0-------1---
----0-----1-1--
---2--1-1--2---
--0------1-----
-----0---------
--3-1----------
2--3--1-1--2--0
---------------
---1-----------
------------1--
3-------0-----0
----0-----1----

Generation = 10, Population = 112.
-00---0-3----31
-1----------021
---33-0--303---
1--1---21--1--1
10-----0--20020
0110--0---10-2-
--0-0----2----1
10-0-00--3---1-
------1-211---1
-0-20-1-1012-1-
0-0-0--0--113--
1--0---1------2
1---1-1--0-----
21131-1-144-120
--4-1-------1--
-0-1-00----1---
----0---------1
3-20--1---3-1-0
--0-0-1-2-1----

Generation = 12, Population = 98.
102-2-0--3--03-
1------01-1-2-1
12--52--050--3-
-1-3-------1-1-
3----21-1----40
--32--011---2-1
-12-0---14---11
-2---2---3-----
1---1-1--1--1--
--140-3---1-6-3
2----10-----50-
-1-------2-1---
----3-3-0-0----
2--3--3----2--2
--6-3----11----
-----2-2-------
--1-----0-1---3
--22--3---50---
2-----3-2---1-1

Generation = 14, Population = 135.
--40-1-2----0-1
1311-30-12-0-3-
121-74---50---0
330--31--301-1-
---014123--10--
12-4-10-3--123-
2-21-0-2141--3-
----1--02-21---
-02--1-1-3113--
013---3---12---
--111--2-2-25-0
1-201--2-23-02-
2----05--2---0-
2-2-3--23--2232
1------11--02-1
1-01-2-2-10---2
--3------0--1--
41-----1-3--10-
----0---2-3----

*** Life<FredkinCell> 14x9 ***

Generation = 0, Population = 9.
----0--0-
---------
-------0-
---0-----
---------
---------
00-------
---------
------0--
---------
---------
----0----
---0-----
---------

Generation = 20, Population = 52.
--56-----
2---1---2
--35635-6
4--0---52
-2-----96
---24----
-3--7-3--
0--26--21
649-1254-
-------1-
4-152345-
--4---60-
-1535----
1-------1

Generation = 40, Population = 48.
+6+++9+3-
----5--8-
55++-----
--98--5--
---924+-+
----9--8-
65-+++5--
----+----
----27-5-
---7-----
8--7--9--
+--78--2+
5---7----
--57--+--

*** Life<FredkinCell> 8x9 ***

Generation = 0, Population = 15.
--0------
-0-0--0--
--0--0---
------0--
------0--
---0-----
--0------
0-00-00--

Generation = 3, Population = 34.
--------0
0-0--1-0-
--1120210
-----0301
0-0--2-01
---1000-0
-010--2-0
-1---1--1

Generation = 6, Population = 34.
-0-11201-
-------12
---221---
--1003-04
-1---22-4
-02---1--
1-210--1-
040-21---

Generation = 9, Population = 32.
-022220--
--3-22-23
-2--5-51-
2-233--14
22-0-----
---------
20-11-41-
-4---4---

Generation = 12, Population = 25.
23--3----
-0--3----
----5----
----36---
-53---2-5
113-2-22-
3-3-4---3
0-0---2--

Generation = 15, Population = 39.
3-34--31-
0-624--24
12126-62-
40-6--5--
-5-3-2--6
-262-2-32
--42-----
1---44-65

Generation = 18, Population = 42.
43-453412
117--3-37
4--36-6-1
-1------7
35331-409
-275-52--
5----0--4
-843-7-9-

Generation = 21, Population = 34.
--35---2-
2---66-48
-5--9-6--
625--7--7
46--4-5--
4--6452--
5---806--
2-447--9-

Generation = 24, Population = 34.
-3--556-2
2-+-6----
8-3-+-6-2
6288--61-
--4-7----
-2--4-5--
-44--1--5
3-7489-+-

Generation = 27, Population = 34.
-----6-52
--+--7-5-
8--4-2-23
-28-477-8
---487---
---9-8--4
64--927--
4-8-9+-+7

Generation = 30, Population = 39.
6-575986-
66+3--36-
99----+--
7-9-4782+
-7--+-70-
64-+5----
-5-4-3--6
7---9+--+

Generation = 33, Population = 38.
7--8-+-6-
9-+4--67+
-+-4+3+--
8----893+
78--+970-
--++-9---
--4-+692-
8+8--+---

Generation = 36, Population = 32.
8---6+--5
+-+5-96--
+-6-+6--5
9-+--99--
-----+---
+-+--+---
6---+-9-+
++96-+2--

*** Life<FredkinCell> 20x10 ***

Generation = 0, Population = 31.
---00---0-
--0-----00
----------
---0-0-00-
-0--------
---0------
0--------0
----------
--0-------
--0--0--0-
-----0----
----------
---------0
---0------
------00--
-0------0-
---0------
----------
--0---0---
---00----0

*** Life<FredkinCell> 6x15 ***

Generation = 0, Population = 16.
-----0----00-0-
---0-----------
0---0----------
-----0---0-0---
00---0---0-----
-0---------0---

Generation = 12, Population = 38.
-1--430-03643-2
-6-2-----3---1-
3--46-5--722--1
-5---------3-5-
5-6124-0------1
---0-4-1-3-6-3-

Generation = 24, Population = 31.
66-6836-78-8-5-
-----5---+-----
--959-7-4+3-4--
-+-5-----------
-98-455-55--3--
-----------7---

Generation = 36, Population = 33.
-+---8--+----7-
---------+-----
----+887-+---+4
-+-7---4-+-+---
+++--974-+6+-63
-6-9-9---+---7-

Generation = 48, Population = 25.
-+--+----+++-+-
-+---------+---
+---+9----++-+-
-+---+---+-----
-----+----++-+-
-9-+-+---+-----

*** Life<FredkinCell> 20x11 ***

Generation = 0, Population = 30.
-----------
-----0--0--
-----------
--0--------
---0-0-----
----00-----
00-------0-
-0---------
--00---000-
------0--0-
-0---------
----0--0---
-----------
----0------
-0----0---0
-----------
-----------
--------0--
0-0---0----
----------0

Generation = 4, Population = 67.
---1-0-----
-1------110
10-------0-
21----0----
-012----1--
11---13----
--1-1----0-
-21-22-0---
1---3-04-01
--0------11
00---11--31
01-0----1--
--00---001-
0-----1--0-
0----1--1-0
----2--1--0
-----------
-----------
-10-0-1----
------0----

Generation = 8, Population = 73.
2002---21--
23--11-----
-2-1-3-----
--0----0--0
-2-4-----0-
-21-23--300
--------301
-----4---2-
21-15126--2
02------2--
0-2--33--4-
-------1---
---1-0-----
--1-10-----
40--210-1--
-1------2--
--10---120-
0--------1-
1---1------
--1-1--0---

Generation = 12, Population = 102.
2416--34-20
----32----3
1432-7----0
3--1-2--02-
-32-0422342
-----5--3-2
233054--3-3
-51--8----3
33-25-38--3
--2--1--22-
---------4-
-3-3-3--51-
0-3-24263-3
------1----
6-0-4-2-2--
-21--2----5
2---4-15-22
--0-5--2-3-
536-203----
10-1--6--1-

*** Life<FredkinCell> 9x18 ***

Generation = 0, Population = 8.
--------------0---
---------------0--
------------------
-----0------------
0---0-------------
------------------
------------------
-------------0---0
------0-----------

*** Life<FredkinCell> 17x20 ***

Generation = 0, Population = 24.
-------0--0---------
--------------------
-----0------------00
------------0-------
-----------------0--
---------------0---0
-----------0--------
----------0---------
-----------------0--
----0-------0-------
------------0-------
-----------0-----0--
--------------------
---0-0--0-----------
--------------0--0--
---------0---0------
--------------------

Generation = 25, Population = 171.
--5-5-5--6-473-24-45
---8---22-77----8-0-
-6-73-55--+863--2--5
3--346-544-96-+-2---
0-5355-3-3-------6-+
-76---5384-8+308-7-5
-7082+--5-----07-+--
-2--5-5-3-454----6-7
-11---13---5+55-4-+-
---6-4+-3----4863946
--65426-4---5----6--
-486-5---6-33-4-633-
-6--35-4153+-317-9-6
---43-----17-4--553-
3151--29--43-7-4-5--
---10--4--6-7787-509
-----34-5---31-451--

*** Life<FredkinCell> 9x11 ***

Generation = 0, Population = 13.
0---0-0----
-0---0-----
0----------
------0----
-----------
---00-----0
-0---------
----0------
-----0-----

*** Life<FredkinCell> 10x9 ***

Generation = 0, Population = 31.
----0--0-
---000--0
0000-000-
000-----0
---------
0-0-0----
0--0-0---
0-0-0--0-
-0---0--0
----0----

Generation = 17, Population = 52.
4---5-235
-53-25-53
--91432--
4-5414-1-
43---1--4
-2421--26
+535-5426
---4--7-6
6-7-7-3-4
7--42--2-

*** Life<FredkinCell> 15x7 ***

Generation = 0, Population = 20.
0-0----
-------
-0---0-
--0--00
---0---
-------
0---00-
---0---
-------
---0---
-----0-
------0
0---0--
-0-----
---00--

Generation = 3, Population = 50.
11-01--
--2---1
2---01-
-0-1---
10002-0
-0120--
--0--12
0---0--
-0-0-00
0--1-21
-002---
0--1201
--021-2
-0---0-
1----2-

Generation = 6, Population = 59.
4--1-02
1121012
302--2-
-1-2-2-
4-3-3-1
0--3021
--3-3--
01--1--
0-032--
----12-
21-5100
0-025-2
0-151--
-00-13-
1----5-

Generation = 9, Population = 48.
-2--412
2-34---
---2-30
0-----3
7--06-2
12-4-2-
-04-43-
-------
-03-50-
03-1-2-
3--52-0
0-----3
---8-23
0-04---
-1--381

Generation = 12, Population = 48.
--13-13
-4-4---
-023---
34---54
8--1735
---5-5-
0153---
-------
2145---
---2-5-
4--6343
32---24
-029---
-3-4---
--23-82

Generation = 15, Population = 56.
72245-4
4---0--
3-3-160
4-----5
924-8-5
--2---2
1-54635
-------
3-46701
--1---2
541-4-3
4-----5
1-3-253
2---1--
21344-3

*** Life<FredkinCell> 10x8 ***

Generation = 0, Population = 22.
--0-0---
-----0-0
-00----0
0--00--0
------0-
00------
--00--0-
--0--0--
---0----
0---0---

Generation = 18, Population = 36.
4-525---
-4-----6
5-63---6
5-962-8-
1--42---
---22---
-5453---
5-2-24-1
3-4--5--
7-42+---

Generation = 36, Population = 43.
78-----6
+-67-67+
--+9+98+
8---56+-
-5+84--+
6-----8-
+-+877+-
-5---++-
5--49++-
---6-+-+

*** Life<FredkinCell> 10x20 ***

Generation = 0, Population = 2.
--------------------
--------------------
--------------------
--------------------
--------------------
---0----------------
------------------0-
--------------------
--------------------
--------------------

*** Life<FredkinCell> 14x17 ***

Generation = 0, Population = 32.
--0----0---0000--
--00----------0--
-----0-0---------
------0----------
--0-00-----0-----
------------0----
--------0--0-----
----------00-----
-0---------------
---------0------0
------0---00-----
-0---------------
-0--0--------0---
--------0--------

Generation = 11, Population = 124.
-1355--1--2---342
2-224-23-6-2---04
16-1-11--141-1-31
4-1250422--1--2-0
0---3-2----33---3
-----3--3---1----
1-7--------4-11--
-210-211-0-0--222
--604-0-----1--2-
-241-0---0---1-1-
11-21--3--35--121
24----01201-20--3
334-222201--14201
12--2-212--3-1001

Generation = 22, Population = 125.
--597-86-326445-4
-62-95-6--6-414-7
-+3----7-275922-6
5--8-3--7-63--5--
-------515-4-47-6
--1--5--633--27--
1----4283477-5-53
----45----3-4-374
--+-95-68-36--743
1-7-22-2-1729-5--
---------3-+3-652
-63-3-2-9-3--29-6
-8-2-2370-------5
-45--4-42373-4313

Generation = 33, Population = 106.
+-8+-+-9----7--+-
+-5-+----+8------
-----3-+---9+--58
--6+--56-5--+37--
6-7375-9---+-----
--3--892-567---2-
24+64--+-6---9-83
--5--8--5---8-4+7
34+-+--9-47--+-65
38---64461+--7---
-6----89--5---+8-
-9---85---47-7+--
++8---+-59-7----6
-67+--769-+--6---

*** Life<FredkinCell> 15x10 ***

Generation = 0, Population = 11.
----------
-------00-
-----0----
----------
---------0
0---------
-0--------
----------
----------
0------0-0
-----0----
----------
----------
----------
-------0--

*** Life<FredkinCell> 17x5 ***

Generation = 0, Population = 7.
-----
-----
-----
-0---
-0---
-----
-0---
-----
-----
-----
-----
-----
-----
---0-
----0
---0-
-0---

*** Life<FredkinCell> 20x13 ***

Generation = 0, Population = 29.
--0-----0-0--
-------------
-------------
-------------
---------0---
----0----0---
----0--------
0--0---------
--0----------
---0-0-------
-------------
-0-----------
--0------0---
0-------0----
------0----0-
---0-----0---
-------------
----00-------
-----0-0---0-
0----00------

Generation = 10, Population = 144.
--1---0-121--
--35-21----1-
010----03--0-
150-21--0---0
0--14-1-42111
-2143--224--3
-1----4-32---
1-10-241--1-0
4-3-40212---0
332--01330-2-
-111-3-02-1--
43011--0-00--
2-3-4-321----
-362513-2-2-2
3-443322-1--3
380-2-3-41031
-3---112---11
-1---22--02--
-2131---34---
-41-035-211-0

Generation = 20, Population = 131.
-2----2--53-5
3-8+6----61-2
-4-53---466-2
8--3---2-5-32
1-1--3---6-2-
9-47533-5--39
25-3-38--35-0
6-3355--2-4-2
4-5-7---423--
-55---3-78--3
--114-4---4--
661-1-----1--
8-----5-23---
-79-66738-445
----674-3--34
69-2-----20-9
-56-143-26--3
--5-4--3305-5
244----24-43-
6---18-15--3-

Generation = 30, Population = 130.
--46-3--75--8
6-+---74---47
-5----3-98-3-
++49-7--2-3-+
-----638-8748
-3---7---+-6+
-+-55---9-64-
-73--------+-
7680--78---7-
7865+--8---75
6---77763----
782546-2-+727
-7--83+--5-4-
-++7---4+-7-9
--+--+6--8---
----6-75+-2+-
56+544673-83-
-4------5----
-84-9+-3-+643
76--5--26+-7-

*** Life<FredkinCell> 5x12 ***

Generation = 0, Population = 22.
-----0--000-
00--0-0----0
0-0-0-0000-0
--00-----0-0
-0----------

*** Life<FredkinCell> 20x19 ***

Generation = 0, Population = 17.
----0-----------0--
-------------------
-------------------
-----0-------------
-------------0-----
-------------------
-------------------
-----0-------------
---0---------------
--------------0----
--------0---0------
0---00-------------
-------------------
-------------------
-------------------
-------------------
-------------------
--------0----------
0-----------0-0----
--------------0----

*** Life<FredkinCell> 20x18 ***

Generation = 0, Population = 12.
------------------
------------------
------------------
---0--------------
------------------
------------------
---0-------------0
------------------
------------------
------------------
0-----------------
------------------
------------------
------0--0---0----
0-------------0--0
-------------0----
------------------
-0----------------
------------------
------------------

*** Life<FredkinCell> 13x17 ***

Generation = 0, Population = 31.
-------0-------0-
---0-------------
---0-------000---
0----------------
---0-------0----0
0-0------0---0---
0--------0-------
-----------------
---0-0-------0---
---0---0---0--0--
----0-0----0-0---
-----------------
-----0--0-------0

*** Life<FredkinCell> 20x14 ***

Generation = 0, Population = 15.
--------------
-0------0---0-
------------0-
----0---------
--------------
--------------
-0------------
--------------
--------------
--------------
0-------------
--------------
--------------
----0---------
-------0------
------0---0---
-------0------
--------00----
--------------
--------0-----

*** Life<FredkinCell> 18x10 ***

Generation = 0, Population = 32.
0---------
-0-----00-
00--0----0
----------
--------0-
---0------
-----0----
-00-------
----------
----------
-00-------
0-00000--0
--00------
----00----
----0---0-
------0---
----------
------000-

*** Life<FredkinCell> 20x20 ***

Generation = 0, Population = 33.
0-------------------
-0--0-----0--0------
---------0-----0----
-0------------------
---------0-0-------0
----0--0-00---0---0-
-----------0--------
---------------0----
------0-------------
0-------------------
-------------0------
--0----0-----0------
-----------000------
--------------0-----
--------------------
--------------------
------------0-------
-----------0--------
-0-------------0----
--------------------

Generation = 16, Population = 86.
------------1-0-0---
-2--2-----2--3---4--
-8---2---6-149------
--5----3---------2--
---------------6----
--3-7485------16-6--
-1-3--2------5-5----
---------5-5---1----
--------3--36-----4-
----5--2-23-----1-1-
-3-------2---------2
-------2---60-6--31-
-624-----2-----4----
111-2--5------------
0------------6------
2-------------------
1-2---3-----2-------
-3-00-----0----3----
-----------5-4-3-1--
-1--3--5-41---3---3-

*** Life<FredkinCell> 10x20 ***

Generation = 0, Population = 11.
--00----------------
--------------------
0-0-----------------
--------------------
--0-----------------
-------------------0
--------------------
----------------0---
-0-0---------------0
----------0---------

Generation = 1, Population = 30.
-0110---------------
0--0----------------
---0----------------
0-------------------
-0-0---------------0
--0---------------0-
----------------0--0
-0-0-----------0-0-0
0---0-----0-----0-0-
-0-0-----0-0-------0

Generation = 2, Population = 30.
-1-210--------------
--------------------
--010---------------
-------------------0
--0-0---------------
----------------00-0
-000---------------1
----------0---0---01
-0-0-0-----------0-0
--------0-0-0---0---

Generation = 3, Population = 55.
0--3-10-------------
-00--0--------------
-01-10-------------0
---0--------------0-
-0---0----------00--
-0-00----------011-1
01-10-----0---0-00--
--0--0---0-0-0-0--12
0-----0-0---0-0---01
-0-0-0-0-----0-0---0

Generation = 4, Population = 31.
------10------------
-------------------0
0--12-0-------------
----------------0---
010---0------------0
----------0----1-2--
1-0-----------------
----------0-0-------
--00-0-0-------0-0-2
------0-------0-0--1

Generation = 5, Population = 69.
-----1210----------0
0--00--0----------0-
-0123--0--------0--0
-0000----------0-0-0
1-10-0-0--0----0000-
-0----0--0-0--0---01
---1--------0--0-0--
0--0-0-0-0---0-0-0-2
-011--0-0-0-0---0--3
--00---------0-0--02

Generation = 6, Population = 65.
0--3-2-210----------
----------------00-0
--2-40010----------1
----------0---01-101
----0-0-0--------1-0
--------0-0--0-112-2
11020000-------1-1--
------0-0---0--101-3
-1220--0-0---0-0----
----0-0-0-0------01-

Generation = 7, Population = 84.
-11----3-10-----00-0
0-000-0--0-----011-1
-0--5---100---000---
--0--0-0-0-0-012---2
---0----10---00---0-
0000-0--1--00----3-3
2-----110-0-000---0-
0-----1----0--02----
02---00--------1--03
-00-1--0-0-0-0-00122

Generation = 8, Population = 33.
-2--1-----10-------1
----------0--------2
--2-6-0-2-1---------
----------0---------
11110-----0--------0
-----------1-0--1---
--02----------------
--------0-------0--3
-----1---0---0------
--1---------------3-

Generation = 9, Population = 74.
0-13-2---1-10-----02
-00---0-00--------03
-0---------0-------1
00-0--0-00-0-------2
2---10---01--0--0-0-
00--0---------01-3-3
-1130---0--0-0-----1
--00-0-0-----0-2-11-
--2-0-0---0-0-0-0-03
-0-0-0---0---0---1-2

Generation = 10, Population = 62.
-2-4-----2-210---0--
--------1-0-0----1-4
---2------110-------
--------1-0100--0--3
-1---1----2-0----1-0
--------1001-0121-04
--24-----00--1-----2
--1---1---00-10-02-3
--3------------1----
0-1-1---0---------33

Generation = 11, Population = 97.
0---1-----13210-0102
-0-----0-01-----12--
--2-6----0221---00--
-0-0-0-0--12-112--04
2-1-1-0-----10000-0-
-000-0-021-20---2315
-1-50-1---100-01-1--
-0---0-0---1--1213-4
02-20-0-0-00-0---00-
--2--0-0-0-----0-144

Generation = 12, Population = 75.
---4-2-3------1--2-3
------0---20-00023-4
-0-2----2--32-0----1
------0-1-----2-0--5
--2----01020-111-1-0
--1----1-20-1--2-426
2-2-1--10-2---------
--1-0-----0----3-41-
1-331----01------1-3
0-----0-0--0-00---55

Generation = 13, Population = 89.
--1---2-1-13--2--3-4
-0------103-01------
0---6--130--30---00-
-000-0-0--1-0--2--0-
-131----2131122-020-
00-00-0---12---3----
----201-10-00------2
-0-0-0-00--1--1---2-
2----10--1---00102-4
102010-------110--6-

*** Life<FredkinCell> 10x12 ***

Generation = 0, Population = 5.
------------
0---------0-
------------
-0---------0
------0-----
------------
------------
------------
------------
------------

Generation = 5, Population = 42.
0-0-0010----
------20----
000-0000-0--
1---0-------
0--0-0-0--20
-00------020
00--------00
0-0---0---0-
-0---0-0---0
------0-----

Generation = 10, Population = 46.
------3-----
22-10-4--201
0---0---1-1-
1210-0-0143-
5-0---0-1---
5120----13-2
1-----0---3-
-0---------1
----0---0---
-210----013-

Generation = 15, Population = 65.
1000---0-020
4--20----4-4
-0---0-0-0--
--42-----545
700-40--3-6-
8-314011264-
30--00--2--0
-2------0---
004-00-02000
352-30-41--2

Generation = 20, Population = 39.
--------4-2-
--4-2184-6-6
------2-----
5453210--6-8
8---6-------
8---4---2-4-
------------
5-010-01----
--5-----3---
68---0-4-38-

*** Life<FredkinCell> 19x20 ***

Generation = 0, Population = 18.
-----------0---0----
--------------------
-------------0-0----
-----------------0-0
----0---------------
------------0-------
0-------------------
--------------------
--------------------
-------0------------
--------------------
--------------------
--00-----0--------0-
--------------------
--------------------
--------0-----------
--------------------
-------0--------0---
-------0------------

*** Life<FredkinCell> 11x12 ***

Generation = 0, Population = 28.
-------0----
----00--0---
----------0-
--0---0--0--
-00----0----
----000-0--0
------0-----
---------0--
-000--------
0---0-0-0--0
0---0-------

Generation = 15, Population = 64.
21-454-2----
162--1435---
-73121427-4-
-3---21----0
71-3-9---2--
-5--663-4---
------3-1143
---23-343--1
--3353---0-2
-0445--2---7
----4-3-617-

Generation = 30, Population = 62.
-------5554-
-76----5-7-8
--+4-6------
9-+46--3---5
--44++-2-74-
5-+9+--+58--
--97-66+-4+-
-+-2--6+-94-
---575----9+
7++8----5--+
--37--6--4+8

Generation = 45, Population = 62.
8-+-+-----6-
-+7---------
-----+8+-3+-
-++7-7----++
-8++--834--+
-+++++++8+-6
+7+-+-9+9---
--426-++---7
--9++-66+7--
+-+---++5---
--5-------++

*** Life<FredkinCell> 7x12 ***

Generation = 0, Population = 12.
----------00
------------
--------0-0-
0-----------
------------
-----00-----
--0----000-0

Generation = 10, Population = 34.
-1-----2----
------2-2---
---1-3--4-0-
12--4-3-3--0
-1212014-41-
1-22--1--2-3
---507-5---2

Generation = 20, Population = 43.
245--4344---
--23----51--
416-55-47-1-
----6-5---7-
-1--64-8----
3-76447485-5
-329--5+-8-4

Generation = 30, Population = 48.
3-7-5--46626
-7-6--4-9--5
9-+-7--88+-5
-5-2748-64+4
3---87---765
--+8-7--8668
--5+4-7+---7

Generation = 40, Population = 23.
588-----+9-6
------------
+---+-+-8-+-
+-8-------+-
------------
---9-9+-+---
8-7---++4---

*** Life<FredkinCell> 19x7 ***

Generation = 0, Population = 28.
--0-00-
0---0--
----0-0
0------
00-0---
------0
000-00-
--0----
-------
-------
--0---0
0--0---
-------
-0--0--
-------
-----0-
0------
0--0---
-------

*** Life<FredkinCell> 7x9 ***

Generation = 0, Population = 23.
0-0-0--0-
-0000----
--00-----
0-------0
-0--00-0-
0---0--00
0--0---0-

*** Life<FredkinCell> 13x13 ***

Generation = 0, Population = 9.
----------0--
-------------
-------------
0------------
--0--0-------
------0------
----------0--
----0--------
-------------
----------0--
0------------
-------------
-------------

*** Life<FredkinCell> 10x19 ***

Generation = 0, Population = 17.
0------------------
-------------------
------------00-----
----------0-----0--
----0--------------
-------------------
-0-0------0---0----
---------------0---
--------0----0-----
--0-0----------00--

Generation = 18, Population = 88.
-3--613--4----3-6-2
0-6---4-4----329324
-8----527--45-5-3-5
----2---7----5---38
46--4----4615---243
----4--2----605-323
1-42------4-7-83--1
1-1-4112-5--24-1-5-
-2---6-3--61--23-3-
--0-225-642-6--37-3

*** Life<FredkinCell> 7x16 ***

Generation = 0, Population = 10.
-----0----------
-----0--00--0---
----------0--0--
-----0----------
----------------
------0---------
0---------------

Generation = 1, Population = 27.
----010-00--0---
----010011-0----
--------0--0--0-
----0-0---0--0--
-----00---------
0----0-0--------
-0----0---------

Generation = 2, Population = 29.
---0-2-0--0--0--
---0-21----1--0-
-----0--1--10--0
---0-01000--0---
0---------0--0--
----01--0-------
--0-------------

Generation = 3, Population = 46.
--01-30-00--0---
--01-32-1--2----
----0-0-2-0--0--
0-0-----11--1--0
-0-00-00---0--0-
0-001200-00--0--
-0-000--0-------

Generation = 4, Population = 29.
-0-------10--0--
-0--0-3------0--
0----01--0----00
-0-------2------
0----0----------
--1--31-011-0---
--0-1-----0--0--

Generation = 5, Population = 57.
010-0-0-0210010-
-101-340--0-01-0
-0---1-0210---11
0-0---1-130---00
--0-01--0-0-0---
0020--2-1-------
-01---0-0-10--0-

Generation = 6, Population = 69.
12-1-3101-2-121-
-2120-5-11-2---1
-10002--32110--2
-01000-0241010--
---01200-01--000
11-1--3--1-00-0-
-----01-1-2100-0

Generation = 7, Population = 61.
2-02042--2-02-2-
-32---602--301-2
02------4-2---13
0-2--11-3--12---
0--1231-01-00-11
22-2-3---2----10
00-011---032110-

Generation = 8, Population = 17.
-2-----------2--
0---0-------12-3
--0--2-----1--2-
-0-----------0--
----------------
3-------------2-
------1-1-------

Generation = 9, Population = 31.
--0-0--------320
--22--------2-0-
0--0--1---2--0--
0----1-----12---
00-----------01-
-2----3-1----0-0
0----1---0----0-

Generation = 10, Population = 39.
-212-4-------431
03----6---03--1-
12-10--0-2--0---
---00------2300-
--0--31-0--0--2-
332---------01--
----1-----3-----

Generation = 11, Population = 53.
---3------202542
-4--0-----14--2-
-----2-----11---
00----10341-4--0
0-1--42--1110031
4--2133-1-1-12--
0010-1---0-211--

Generation = 12, Population = 39.
-21------2-1--53
0-2------1-52-3-
1------0422--023
-1---1---5-----1
-0----3-0----1--
--2-------2-23-0
----12----332-0-

Generation = 13, Population = 52.
-3-3----13-2-5-4
1432---0--1-32-3
2-0--211--3--13-
-22-0--036-----2
01--------1--23-
---2133-1230--2-
--10231--0---1--

Generation = 14, Population = 62.
-4140---242-26-5
-54-03-1--254334
3----3-2--41--43
0--------71---0-
1--1-430-12-03--
43--24--23412330
-02134-0-1-32---

Generation = 15, Population = 51.
2-2-----3--2--56
---2---2--365445
4-0--4-34-5---5-
-2-0--1-3-2-4-1-
--1-2--10231--31
---2-5-03-52-4-1
----4---123---00

Generation = 16, Population = 19.
---------4-3----
--4-036321-7----
-2-10-1---------
---------7-2----
----------------
--------4-6-----
--------------1-

Generation = 17, Population = 35.
--2-0420-5-42---
---2--7----85---
4-02-42-4-------
-2-00-1-3---4---
--------0231----
-------0---2--3-
--------1-3--1-0

Generation = 18, Population = 42.
-4-41-31-----6--
1-43-3--213--4--
-213053-52-1----
--2-112---2--0--
-1-12-3-------3-
------3-43632---
------------2-1-

Generation = 19, Population = 53.
--2-2442-52-275-
---4-47--24-554-
-3-41-------1---
-23-22303---4---
1-12-4-102-10--1
-3-2254-5----4--
------1-123-3--0

Generation = 20, Population = 45.
-4-43553-----8-6
-5-5----2---66-5
441--5-35251--5-
-----3-1-----0-2
---------3-2--3-
--2--6-0-3632-3-
-0-14-2---4---1-

Generation = 21, Population = 52.
25-----4-----9-7
--46--733-4-7-46
552-16--6--2-1-3
023-24-2--2-4---
--1-----0433--4-
------4---743--1
0-2254----5-3120

Generation = 22, Population = 52.
36-4---5--2---58
-5-7--84---8--57
-634---3725---54
-34-----3-3---12
1-22243-1---03--
4--22--05-85--32
--3--5---263----

Generation = 23, Population = 62.
4--53--635---9--
--4-0495-24-7668
574-1---8----165
--50243--7424---
21-33-41-4--144-
532--6-1-3----43
00----20-37-3-20

Generation = 24, Population = 27.
-6-6---------+-8
--571-----5-8-7-
6-54-6---2-21-7-
-3-1---------0-2
----------------
6-3-----------5-
------3---8-----

Generation = 25, Population = 46.
4-27------2---5-
1---2------8968-
-7-51-3-8-53-18-
--5224---7-2--1-
2123---------441
---2--4---8--4-3
0-3--5-0-3-3--2-

Generation = 26, Population = 56.
5-38-----5--2-68
2-57349-3-5--798
--5-26---2641-95
03--35----4340--
3-34-44--4331-5-
-3332-------35-4
----5-3---8-3---

Generation = 27, Population = 51.
6----55----4-+--
3-6845+---6-98-9
--6537---3-5----
-45--6---75--112
4-----5115442---
-444-----3--465-
-03-6--0-3--4--0

Generation = 28, Population = 48.
7638---6----2+68
4--95--5----+---
6-7648--84----9-
-5---7-2-8-3-2-3
-1-4--6---5--4-1
--55--4-----5-6-
0--2-53--4835---

Generation = 29, Population = 58.
------573--4---9
--6+--+6-2-8+--9
77875-339-651---
-6---83-395--314
42353-7------552
6-662--1-3--66--
-0-3-6-015---12-

Generation = 30, Population = 60.
--38-5-84-25--6+
4----5+7--69-89+
88986844---6--9-
0-5-3942------2-
-346-48-1-5--66-
7------254857764
--346-----8---30

Generation = 31, Population = 49.
7649-65-5---2---
5----6+8-2-+-9--
9-+-7--59--71---
1---------53---4
44573---256---7-
----26-36----8--
004-76-01-9-5---

Generation = 32, Population = 16.
---+---8--------
---+--+----+--9-
--------+--82--5
---2---2--------
----------------
----3---7-------
1-5-------------

Generation = 33, Population = 38.
--4+3---5--5--6-
--6+56--3-6+-9--
------4--46-31--
--5-3-4----34--4
---73--12-------
7-66-6-3-4------
---47---1-------

Generation = 34, Population = 43.
-6-+---865-62--+
-5-+67-842--++--
---8--55-5----95
-6-24-5-39-4--2-
4-5-----3--42--2
--77---4--8-----
1---8-----------

Generation = 35, Population = 51.
77-+-65-7--7--6-
56-+-8+9536--+--
--+-7-----683--6
--5-5-62---5-334
-4673-8-4---36--
-4-8--4--4--7--4
-05--6-0--9-----

Generation = 36, Population = 42.
---+---88---2--+
--6+6-+-6--+---+
9-+88---+--941-7
---2---3---6----
4-78---1--------
7--9--5----58-6-
1-6-8-3-1--35--0

Generation = 37, Population = 51.
---+---9-5---+6+
56-----9-36+++9-
-----85-+56+-2-8
--5---64--57-3-4
5-893--24---3-7-
-47+-66-7-8-----
2--4--4--59--1--

Generation = 38, Population = 70.
774-3-5+-6-7--7+
676+-8-+647+---+
98+-89--+6-+4-99
166-5---3---4435
-49+4-8--5---6--
758+37-48495886-
---58-50-6-35-3-

Generation = 39, Population = 63.
-8-+-66-87282+8-
7--+-9+-7--+--9-
+-+8--5-+-6--2-+
--72--6449---54-
55-+54--46-43-72
869--8-----699-4
20---66-179--140

Generation = 40, Population = 26.
---+-------9---+
8-----+---7+-++-
+--98--5-6--43--
---3-------7---5
----------------
9-+---------+---
----8-7-2-+-----

Generation = 41, Population = 48.
7-4-3-6----+2+--
97--69----8-+-+-
+8+-99-----+5--+
1-74---4-95--54-
5-9+-------43--2
---+3-6-8-96-9--
2-65-------35---

Generation = 42, Population = 54.
88--46-+---+3+--
+-6+7----4---+--
+9-9--55-66+--9-
-68--96--+674655
6--+--82466-46--
--++4-----+7--64
--7---7-2---6---

Generation = 43, Population = 56.
-9---7--872+--8-
--7+--+-75---+--
---+---6-77--3+-
1-945+74-+-85766
--9+-----77---7-
96-+58-4---8+-75
-08-86---7+--140

Generation = 44, Population = 53.
8--+4--+-8-+3--+
--8-7--+-68++++-
+-+--957+88--4--
-----------9-8-7
---+5-8-4-84---2
+---6---8-+9+98-
--95--7028+--25-

Generation = 45, Population = 59.
-9-+-76+-92-----
-79+8---779++++-
--++-+-8-9-+---+
1-945+-4-+6+-9-8
6-9+----5--5---3
-6++78---4++-+--
20+6-68-3------0

Generation = 46, Population = 56.
8+4+48-+8---3+8-
+-+-99++8-++--+-
+-++-+-9+------+
2-+----54--+----
75++5----78-4-74
+-------85----8-
31+-8-9---+3-25-

Generation = 47, Population = 51.
--5-5-6--92-4--+
-7------9-++--+-
--++9+5++98-----
-6-45+7-------6-
8-+-64-25-95---5
-6-+--649-+++---
--+----03-+4-3-0

Generation = 48, Population = 28.
-------+-+-+-+--
+-++-9--+-++-+--
-9++++6-+-------
-------5-+-+-9--
----------------
------7-+-+-+---
------------6---

*** Life<FredkinCell> 13x8 ***

Generation = 0, Population = 25.
---0----
---0----
-0--0-0-
---0----
00-0--00
---0-0--
0----0--
------0-
--00----
-0-0----
-----0--
0-00----
-------0

*** Life<FredkinCell> 13x17 ***

Generation = 0, Population = 11.
-------0---------
-----------------
---------0--0----
-----------------
---------0-------
-----------------
-------0---------
--0--------------
-----------------
-----------------
0----------0-----
-0-------------0-
------0----------

Generation = 9, Population = 97.
------0-1-----0-0
00--0--0-0-0--00-
2-00-1--1---21---
--0-0-0----00---0
010--0-12-02-2-0-
-1-----0-0--0--1-
-1--00420-1---110
--22-01--0----020
----0-3-2---1--2-
0--0--0000-00--2-
----0--03-0--20-0
20--1-010-----00-
-02--002-430-0-0-

Generation = 18, Population = 62.
----5-262--------
-11------------1-
6--3445--2-------
1--21--------1---
5--3---2-----4---
-1----------0--10
6------3----51---
2---2-----1-----0
---1-1---12-----1
--12--------11--1
-2---0-36--1--3--
-1---2-----4---2-
---2-25-4942--2-4

Generation = 27, Population = 96.
-0--65-7----7---0
---2-512--4412041
-54-7---324-5----
-6-44----5624--3-
8586-4----4--+2-5
-33-----32--11-31
-----1-565-65-74-
46----7---31+6--5
66------9-5255---
2---1--44-24-----
1--5-345-----+---
36---32-0-------3
--+44--6-9---4---

*** Life<FredkinCell> 9x10 ***

Generation = 0, Population = 29.
-00------0
----0-----
0---000-0-
-0-----0--
0---0--0-0
--0--0---0
0-0---0---
-0--0-----
--00-0000-

Generation = 24, Population = 40.
-+8----6-6
-----6963+
-----5--9+
4-4+----62
------+43-
--86---5-6
--9+81--24
--4-7-7--3
9-46--2-68

*** Life<FredkinCell> 16x17 ***

Generation = 0, Population = 32.
----0--0-----0-0-
-----0----0--00--
---0----0--------
---0----0-----0--
-----0-------0--0
---0-------0-0--0
-----------------
----------0-0----
-----------0---00
-----------------
-----------------
-----------------
--0--------0-----
----0------------
-----------0----0
------0----0-----

Generation = 16, Population = 94.
-1-3-7-1--2---3-4
45--466-13-3-5---
--1---0---41---42
5-----4---16---3-
24---0---5-6-5---
2310-3-3---2---6-
-----------2---22
--7-5-1-1-2-4----
0-2----5---5---35
---6------2336--0
-----0-------1--9
--------1--5-12-2
-----8-33---54---
---2-5--8----30--
3-3-4---1----0-5-
---1-3-46-5-344--

*** Life<FredkinCell> 19x17 ***

Generation = 0, Population = 22.
----0------------
-----------------
------0---00-----
---0-0-----------
--------0--------
-------------0---
-----------------
-------------0---
---------------0-
0-------0--------
---00------------
--0--------------
----0------------
----0------------
-------------0---
------0----------
--0--------------
---------0-------
-----------0-----
